<?xml version="1.0" encoding="utf-8"?>
<!-- Generator: Adobe Illustrator 19.0.0, SVG Export Plug-In . SVG Version: 6.00 Build 0)  -->
<svg version="1.1" id="Layer_1" xmlns="http://www.w3.org/2000/svg" xmlns:xlink="http://www.w3.org/1999/xlink" x="0px" y="0px"
	 viewBox="-292 375 28.1 44" style="enable-background:new -292 375 28.1 44;" xml:space="preserve">
<style type="text/css">
	.st0{fill:#FFFFFF;}
	.st1{fill:#333333;}
</style>
<path class="st0" d="M-292,397l22-22l2.1,2.1l-19.9,19.9l19.9,19.9l-2.1,2.1L-292,397L-292,397L-292,397z"/>
<path class="st1" d="M-288,397l22-22l2.1,2.1l-19.9,19.9l19.9,19.9l-2.1,2.1L-288,397L-288,397L-288,397z"/>
</svg>
